{
	"instance": {
		"info": {
			"dataset": "Christofides and Eilon 1969 — Set E",
			"name": "E-n022-k04"
		},
		"network": {
			"nodes": {
				"node": [
					{
						"x": "145",
						"y": "215.0",
						"_id": "1",
						"_type": "0"
					},
					{
						"x": "151.0",
						"y": "264.0",
						"_id": "2",
						"_type": "1"
					},
					{
						"x": "159.0",
						"y": "261.0",
						"_id": "3",
						"_type": "1"
					},
					{
						"x": "130.0",
						"y": "254.0",
						"_id": "4",
						"_type": "1"
					},
					{
						"x": "128.0",
						"y": "252.0",
						"_id": "5",
						"_type": "1"
					},
					{
						"x": "163.0",
						"y": "247.0",
						"_id": "6",
						"_type": "1"
					},
					{
						"x": "146.0",
						"y": "246.0",
						"_id": "7",
						"_type": "1"
					},
					{
						"x": "161.0",
						"y": "242.0",
						"_id": "8",
						"_type": "1"
					},
					{
						"x": "142.0",
						"y": "239.0",
						"_id": "9",
						"_type": "1"
					},
					{
						"x": "163.0",
						"y": "236.0",
						"_id": "10",
						"_type": "1"
					},
					{
						"x": "148.0",
						"y": "232.0",
						"_id": "11",
						"_type": "1"
					},
					{
						"x": "128.0",
						"y": "231.0",
						"_id": "12",
						"_type": "1"
					},
					{
						"x": "156.0",
						"y": "217.0",
						"_id": "13",
						"_type": "1"
					},
					{
						"x": "129.0",
						"y": "214.0",
						"_id": "14",
						"_type": "1"
					},
					{
						"x": "146.0",
						"y": "208.0",
						"_id": "15",
						"_type": "1"
					},
					{
						"x": "164.0",
						"y": "208.0",
						"_id": "16",
						"_type": "1"
					},
					{
						"x": "141.0",
						"y": "206.0",
						"_id": "17",
						"_type": "1"
					},
					{
						"x": "147.0",
						"y": "193.0",
						"_id": "18",
						"_type": "1"
					},
					{
						"x": "164.0",
						"y": "193.0",
						"_id": "19",
						"_type": "1"
					},
					{
						"x": "129.0",
						"y": "189.0",
						"_id": "20",
						"_type": "1"
					},
					{
						"x": "155.0",
						"y": "185.0",
						"_id": "21",
						"_type": "1"
					},
					{
						"x": "139.0",
						"y": "182.0",
						"_id": "22",
						"_type": "1"
					}
				]
			},
			"euclidean": "",
			"decimals": "0"
		},
		"fleet": {
			"vehicle_profile": {
				"departure_node": "1",
				"arrival_node": "1",
				"capacity": "6000.0",
				"_type": "0"
			}
		},
		"requests": {
			"request": [
				{
					"quantity": "1100.0",
					"_id": "1",
					"_node": "2"
				},
				{
					"quantity": "700.0",
					"_id": "2",
					"_node": "3"
				},
				{
					"quantity": "800.0",
					"_id": "3",
					"_node": "4"
				},
				{
					"quantity": "1400.0",
					"_id": "4",
					"_node": "5"
				},
				{
					"quantity": "2100.0",
					"_id": "5",
					"_node": "6"
				},
				{
					"quantity": "400.0",
					"_id": "6",
					"_node": "7"
				},
				{
					"quantity": "800.0",
					"_id": "7",
					"_node": "8"
				},
				{
					"quantity": "100.0",
					"_id": "8",
					"_node": "9"
				},
				{
					"quantity": "500.0",
					"_id": "9",
					"_node": "10"
				},
				{
					"quantity": "600.0",
					"_id": "10",
					"_node": "11"
				},
				{
					"quantity": "1200.0",
					"_id": "11",
					"_node": "12"
				},
				{
					"quantity": "1300.0",
					"_id": "12",
					"_node": "13"
				},
				{
					"quantity": "1300.0",
					"_id": "13",
					"_node": "14"
				},
				{
					"quantity": "300.0",
					"_id": "14",
					"_node": "15"
				},
				{
					"quantity": "900.0",
					"_id": "15",
					"_node": "16"
				},
				{
					"quantity": "2100.0",
					"_id": "16",
					"_node": "17"
				},
				{
					"quantity": "1000.0",
					"_id": "17",
					"_node": "18"
				},
				{
					"quantity": "900.0",
					"_id": "18",
					"_node": "19"
				},
				{
					"quantity": "2500.0",
					"_id": "19",
					"_node": "20"
				},
				{
					"quantity": "1800.0",
					"_id": "20",
					"_node": "21"
				},
				{
					"quantity": "700.0",
					"_id": "21",
					"_node": "22"
				}
			]
		}
	}
}
